# MagicaVoxel @ Ephtracy

# material
mtllib PilarMeio.mtl
usemtl palette

# normals
vn -1 0 0
vn 1 0 0
vn 0 0 1
vn 0 0 -1
vn 0 -1 0
vn 0 1 0

# texcoords
vt 0.802734 0.5
vt 0.990234 0.5

# verts
v -25 0 5
v -25 0 -5
v -25 100 5
v -25 100 -5
v -24 0 9
v -24 0 5
v -24 0 -5
v -24 0 -9
v -24 100 9
v -24 100 5
v -24 100 -5
v -24 100 -9
v -23 0 11
v -23 0 9
v -23 0 -9
v -23 0 -11
v -23 100 11
v -23 100 9
v -23 100 -9
v -23 100 -11
v -22 0 13
v -22 0 11
v -22 0 -11
v -22 0 -13
v -22 100 13
v -22 100 11
v -22 100 -11
v -22 100 -13
v -21 0 14
v -21 0 13
v -21 0 -13
v -21 0 -14
v -21 100 14
v -21 100 13
v -21 100 -13
v -21 100 -14
v -20 0 16
v -20 0 14
v -20 0 -14
v -20 0 -16
v -20 100 16
v -20 100 14
v -20 100 -14
v -20 100 -16
v -19 0 17
v -19 0 16
v -19 0 -16
v -19 0 -17
v -19 100 17
v -19 100 16
v -19 100 -16
v -19 100 -17
v -18 0 18
v -18 0 17
v -18 0 -17
v -18 0 -18
v -18 100 18
v -18 100 17
v -18 100 -17
v -18 100 -18
v -17 0 19
v -17 0 18
v -17 0 -18
v -17 0 -19
v -17 100 19
v -17 100 18
v -17 100 -18
v -17 100 -19
v -16 0 20
v -16 0 19
v -16 0 -19
v -16 0 -20
v -16 100 20
v -16 100 19
v -16 100 -19
v -16 100 -20
v -14 0 21
v -14 0 20
v -14 0 -20
v -14 0 -21
v -14 100 21
v -14 100 20
v -14 100 -20
v -14 100 -21
v -13 0 22
v -13 0 21
v -13 0 -21
v -13 0 -22
v -13 100 22
v -13 100 21
v -13 100 -21
v -13 100 -22
v -11 0 23
v -11 0 22
v -11 0 -22
v -11 0 -23
v -11 100 23
v -11 100 22
v -11 100 -22
v -11 100 -23
v -9 0 24
v -9 0 23
v -9 0 -23
v -9 0 -24
v -9 100 24
v -9 100 23
v -9 100 -23
v -9 100 -24
v -5 0 25
v -5 0 24
v -5 0 -24
v -5 0 -25
v -5 100 25
v -5 100 24
v -5 100 -24
v -5 100 -25
v 5 1 24
v 5 1 23
v 5 1 -23
v 5 1 -24
v 5 99 24
v 5 99 23
v 5 99 -23
v 5 99 -24
v 9 1 23
v 9 1 22
v 9 1 -22
v 9 1 -23
v 9 99 23
v 9 99 22
v 9 99 -22
v 9 99 -23
v 11 1 22
v 11 1 21
v 11 1 -21
v 11 1 -22
v 11 99 22
v 11 99 21
v 11 99 -21
v 11 99 -22
v 13 1 21
v 13 1 20
v 13 1 -20
v 13 1 -21
v 13 99 21
v 13 99 20
v 13 99 -20
v 13 99 -21
v 14 1 20
v 14 1 19
v 14 1 -19
v 14 1 -20
v 14 99 20
v 14 99 19
v 14 99 -19
v 14 99 -20
v 16 1 19
v 16 1 18
v 16 1 -18
v 16 1 -19
v 16 99 19
v 16 99 18
v 16 99 -18
v 16 99 -19
v 17 1 18
v 17 1 17
v 17 1 -17
v 17 1 -18
v 17 99 18
v 17 99 17
v 17 99 -17
v 17 99 -18
v 18 1 17
v 18 1 16
v 18 1 -16
v 18 1 -17
v 18 99 17
v 18 99 16
v 18 99 -16
v 18 99 -17
v 19 1 16
v 19 1 14
v 19 1 -14
v 19 1 -16
v 19 99 16
v 19 99 14
v 19 99 -14
v 19 99 -16
v 20 1 14
v 20 1 13
v 20 1 -13
v 20 1 -14
v 20 99 14
v 20 99 13
v 20 99 -13
v 20 99 -14
v 21 1 13
v 21 1 11
v 21 1 -11
v 21 1 -13
v 21 99 13
v 21 99 11
v 21 99 -11
v 21 99 -13
v 22 1 11
v 22 1 9
v 22 1 -9
v 22 1 -11
v 22 99 11
v 22 99 9
v 22 99 -9
v 22 99 -11
v 23 1 9
v 23 1 5
v 23 1 -5
v 23 1 -9
v 23 99 9
v 23 99 5
v 23 99 -5
v 23 99 -9
v 24 1 5
v 24 1 -5
v 24 99 5
v 24 99 -5
v -24 1 5
v -24 1 -5
v -24 99 5
v -24 99 -5
v -23 1 9
v -23 1 5
v -23 1 -5
v -23 1 -9
v -23 99 9
v -23 99 5
v -23 99 -5
v -23 99 -9
v -22 1 11
v -22 1 9
v -22 1 -9
v -22 1 -11
v -22 99 11
v -22 99 9
v -22 99 -9
v -22 99 -11
v -21 1 13
v -21 1 11
v -21 1 -11
v -21 1 -13
v -21 99 13
v -21 99 11
v -21 99 -11
v -21 99 -13
v -20 1 14
v -20 1 13
v -20 1 -13
v -20 1 -14
v -20 99 14
v -20 99 13
v -20 99 -13
v -20 99 -14
v -19 1 16
v -19 1 14
v -19 1 -14
v -19 1 -16
v -19 99 16
v -19 99 14
v -19 99 -14
v -19 99 -16
v -18 1 17
v -18 1 16
v -18 1 -16
v -18 1 -17
v -18 99 17
v -18 99 16
v -18 99 -16
v -18 99 -17
v -17 1 18
v -17 1 17
v -17 1 -17
v -17 1 -18
v -17 99 18
v -17 99 17
v -17 99 -17
v -17 99 -18
v -16 1 19
v -16 1 18
v -16 1 -18
v -16 1 -19
v -16 99 19
v -16 99 18
v -16 99 -18
v -16 99 -19
v -14 1 20
v -14 1 19
v -14 1 -19
v -14 1 -20
v -14 99 20
v -14 99 19
v -14 99 -19
v -14 99 -20
v -13 1 21
v -13 1 20
v -13 1 -20
v -13 1 -21
v -13 99 21
v -13 99 20
v -13 99 -20
v -13 99 -21
v -11 1 22
v -11 1 21
v -11 1 -21
v -11 1 -22
v -11 99 22
v -11 99 21
v -11 99 -21
v -11 99 -22
v -9 1 23
v -9 1 22
v -9 1 -22
v -9 1 -23
v -9 99 23
v -9 99 22
v -9 99 -22
v -9 99 -23
v -5 1 24
v -5 1 23
v -5 1 -23
v -5 1 -24
v -5 99 24
v -5 99 23
v -5 99 -23
v -5 99 -24
v 5 0 25
v 5 0 24
v 5 0 -24
v 5 0 -25
v 5 100 25
v 5 100 24
v 5 100 -24
v 5 100 -25
v 9 0 24
v 9 0 23
v 9 0 -23
v 9 0 -24
v 9 100 24
v 9 100 23
v 9 100 -23
v 9 100 -24
v 11 0 23
v 11 0 22
v 11 0 -22
v 11 0 -23
v 11 100 23
v 11 100 22
v 11 100 -22
v 11 100 -23
v 13 0 22
v 13 0 21
v 13 0 -21
v 13 0 -22
v 13 100 22
v 13 100 21
v 13 100 -21
v 13 100 -22
v 14 0 21
v 14 0 20
v 14 0 -20
v 14 0 -21
v 14 100 21
v 14 100 20
v 14 100 -20
v 14 100 -21
v 16 0 20
v 16 0 19
v 16 0 -19
v 16 0 -20
v 16 100 20
v 16 100 19
v 16 100 -19
v 16 100 -20
v 17 0 19
v 17 0 18
v 17 0 -18
v 17 0 -19
v 17 100 19
v 17 100 18
v 17 100 -18
v 17 100 -19
v 18 0 18
v 18 0 17
v 18 0 -17
v 18 0 -18
v 18 100 18
v 18 100 17
v 18 100 -17
v 18 100 -18
v 19 0 17
v 19 0 16
v 19 0 -16
v 19 0 -17
v 19 100 17
v 19 100 16
v 19 100 -16
v 19 100 -17
v 20 0 16
v 20 0 14
v 20 0 -14
v 20 0 -16
v 20 100 16
v 20 100 14
v 20 100 -14
v 20 100 -16
v 21 0 14
v 21 0 13
v 21 0 -13
v 21 0 -14
v 21 100 14
v 21 100 13
v 21 100 -13
v 21 100 -14
v 22 0 13
v 22 0 11
v 22 0 -11
v 22 0 -13
v 22 100 13
v 22 100 11
v 22 100 -11
v 22 100 -13
v 23 0 11
v 23 0 9
v 23 0 -9
v 23 0 -11
v 23 100 11
v 23 100 9
v 23 100 -9
v 23 100 -11
v 24 0 9
v 24 0 5
v 24 0 -5
v 24 0 -9
v 24 100 9
v 24 100 5
v 24 100 -5
v 24 100 -9
v 25 0 5
v 25 0 -5
v 25 100 5
v 25 100 -5
v -5 0 25
v -5 100 25
v 5 0 25
v 5 100 25
v -9 0 24
v -9 100 24
v -5 0 24
v -5 100 24
v 5 0 24
v 5 100 24
v 9 0 24
v 9 100 24
v -11 0 23
v -11 100 23
v -9 0 23
v -9 100 23
v 9 0 23
v 9 100 23
v 11 0 23
v 11 100 23
v -13 0 22
v -13 100 22
v -11 0 22
v -11 100 22
v 11 0 22
v 11 100 22
v 13 0 22
v 13 100 22
v -14 0 21
v -14 100 21
v -13 0 21
v -13 100 21
v 13 0 21
v 13 100 21
v 14 0 21
v 14 100 21
v -16 0 20
v -16 100 20
v -14 0 20
v -14 100 20
v 14 0 20
v 14 100 20
v 16 0 20
v 16 100 20
v -17 0 19
v -17 100 19
v -16 0 19
v -16 100 19
v 16 0 19
v 16 100 19
v 17 0 19
v 17 100 19
v -18 0 18
v -18 100 18
v -17 0 18
v -17 100 18
v 17 0 18
v 17 100 18
v 18 0 18
v 18 100 18
v -19 0 17
v -19 100 17
v -18 0 17
v -18 100 17
v 18 0 17
v 18 100 17
v 19 0 17
v 19 100 17
v -20 0 16
v -20 100 16
v -19 0 16
v -19 100 16
v 19 0 16
v 19 100 16
v 20 0 16
v 20 100 16
v -21 0 14
v -21 100 14
v -20 0 14
v -20 100 14
v 20 0 14
v 20 100 14
v 21 0 14
v 21 100 14
v -22 0 13
v -22 100 13
v -21 0 13
v -21 100 13
v 21 0 13
v 21 100 13
v 22 0 13
v 22 100 13
v -23 0 11
v -23 100 11
v -22 0 11
v -22 100 11
v 22 0 11
v 22 100 11
v 23 0 11
v 23 100 11
v -24 0 9
v -24 100 9
v -23 0 9
v -23 100 9
v 23 0 9
v 23 100 9
v 24 0 9
v 24 100 9
v -25 0 5
v -25 100 5
v -24 0 5
v -24 100 5
v 24 0 5
v 24 100 5
v 25 0 5
v 25 100 5
v -24 1 -5
v -24 99 -5
v -23 1 -5
v -23 99 -5
v 23 1 -5
v 23 99 -5
v 24 1 -5
v 24 99 -5
v -23 1 -9
v -23 99 -9
v -22 1 -9
v -22 99 -9
v 22 1 -9
v 22 99 -9
v 23 1 -9
v 23 99 -9
v -22 1 -11
v -22 99 -11
v -21 1 -11
v -21 99 -11
v 21 1 -11
v 21 99 -11
v 22 1 -11
v 22 99 -11
v -21 1 -13
v -21 99 -13
v -20 1 -13
v -20 99 -13
v 20 1 -13
v 20 99 -13
v 21 1 -13
v 21 99 -13
v -20 1 -14
v -20 99 -14
v -19 1 -14
v -19 99 -14
v 19 1 -14
v 19 99 -14
v 20 1 -14
v 20 99 -14
v -19 1 -16
v -19 99 -16
v -18 1 -16
v -18 99 -16
v 18 1 -16
v 18 99 -16
v 19 1 -16
v 19 99 -16
v -18 1 -17
v -18 99 -17
v -17 1 -17
v -17 99 -17
v 17 1 -17
v 17 99 -17
v 18 1 -17
v 18 99 -17
v -17 1 -18
v -17 99 -18
v -16 1 -18
v -16 99 -18
v 16 1 -18
v 16 99 -18
v 17 1 -18
v 17 99 -18
v -16 1 -19
v -16 99 -19
v -14 1 -19
v -14 99 -19
v 14 1 -19
v 14 99 -19
v 16 1 -19
v 16 99 -19
v -14 1 -20
v -14 99 -20
v -13 1 -20
v -13 99 -20
v 13 1 -20
v 13 99 -20
v 14 1 -20
v 14 99 -20
v -13 1 -21
v -13 99 -21
v -11 1 -21
v -11 99 -21
v 11 1 -21
v 11 99 -21
v 13 1 -21
v 13 99 -21
v -11 1 -22
v -11 99 -22
v -9 1 -22
v -9 99 -22
v 9 1 -22
v 9 99 -22
v 11 1 -22
v 11 99 -22
v -9 1 -23
v -9 99 -23
v -5 1 -23
v -5 99 -23
v 5 1 -23
v 5 99 -23
v 9 1 -23
v 9 99 -23
v -5 1 -24
v -5 99 -24
v 5 1 -24
v 5 99 -24
v -5 1 24
v -5 99 24
v 5 1 24
v 5 99 24
v -9 1 23
v -9 99 23
v -5 1 23
v -5 99 23
v 5 1 23
v 5 99 23
v 9 1 23
v 9 99 23
v -11 1 22
v -11 99 22
v -9 1 22
v -9 99 22
v 9 1 22
v 9 99 22
v 11 1 22
v 11 99 22
v -13 1 21
v -13 99 21
v -11 1 21
v -11 99 21
v 11 1 21
v 11 99 21
v 13 1 21
v 13 99 21
v -14 1 20
v -14 99 20
v -13 1 20
v -13 99 20
v 13 1 20
v 13 99 20
v 14 1 20
v 14 99 20
v -16 1 19
v -16 99 19
v -14 1 19
v -14 99 19
v 14 1 19
v 14 99 19
v 16 1 19
v 16 99 19
v -17 1 18
v -17 99 18
v -16 1 18
v -16 99 18
v 16 1 18
v 16 99 18
v 17 1 18
v 17 99 18
v -18 1 17
v -18 99 17
v -17 1 17
v -17 99 17
v 17 1 17
v 17 99 17
v 18 1 17
v 18 99 17
v -19 1 16
v -19 99 16
v -18 1 16
v -18 99 16
v 18 1 16
v 18 99 16
v 19 1 16
v 19 99 16
v -20 1 14
v -20 99 14
v -19 1 14
v -19 99 14
v 19 1 14
v 19 99 14
v 20 1 14
v 20 99 14
v -21 1 13
v -21 99 13
v -20 1 13
v -20 99 13
v 20 1 13
v 20 99 13
v 21 1 13
v 21 99 13
v -22 1 11
v -22 99 11
v -21 1 11
v -21 99 11
v 21 1 11
v 21 99 11
v 22 1 11
v 22 99 11
v -23 1 9
v -23 99 9
v -22 1 9
v -22 99 9
v 22 1 9
v 22 99 9
v 23 1 9
v 23 99 9
v -24 1 5
v -24 99 5
v -23 1 5
v -23 99 5
v 23 1 5
v 23 99 5
v 24 1 5
v 24 99 5
v -25 0 -5
v -25 100 -5
v -24 0 -5
v -24 100 -5
v 24 0 -5
v 24 100 -5
v 25 0 -5
v 25 100 -5
v -24 0 -9
v -24 100 -9
v -23 0 -9
v -23 100 -9
v 23 0 -9
v 23 100 -9
v 24 0 -9
v 24 100 -9
v -23 0 -11
v -23 100 -11
v -22 0 -11
v -22 100 -11
v 22 0 -11
v 22 100 -11
v 23 0 -11
v 23 100 -11
v -22 0 -13
v -22 100 -13
v -21 0 -13
v -21 100 -13
v 21 0 -13
v 21 100 -13
v 22 0 -13
v 22 100 -13
v -21 0 -14
v -21 100 -14
v -20 0 -14
v -20 100 -14
v 20 0 -14
v 20 100 -14
v 21 0 -14
v 21 100 -14
v -20 0 -16
v -20 100 -16
v -19 0 -16
v -19 100 -16
v 19 0 -16
v 19 100 -16
v 20 0 -16
v 20 100 -16
v -19 0 -17
v -19 100 -17
v -18 0 -17
v -18 100 -17
v 18 0 -17
v 18 100 -17
v 19 0 -17
v 19 100 -17
v -18 0 -18
v -18 100 -18
v -17 0 -18
v -17 100 -18
v 17 0 -18
v 17 100 -18
v 18 0 -18
v 18 100 -18
v -17 0 -19
v -17 100 -19
v -16 0 -19
v -16 100 -19
v 16 0 -19
v 16 100 -19
v 17 0 -19
v 17 100 -19
v -16 0 -20
v -16 100 -20
v -14 0 -20
v -14 100 -20
v 14 0 -20
v 14 100 -20
v 16 0 -20
v 16 100 -20
v -14 0 -21
v -14 100 -21
v -13 0 -21
v -13 100 -21
v 13 0 -21
v 13 100 -21
v 14 0 -21
v 14 100 -21
v -13 0 -22
v -13 100 -22
v -11 0 -22
v -11 100 -22
v 11 0 -22
v 11 100 -22
v 13 0 -22
v 13 100 -22
v -11 0 -23
v -11 100 -23
v -9 0 -23
v -9 100 -23
v 9 0 -23
v 9 100 -23
v 11 0 -23
v 11 100 -23
v -9 0 -24
v -9 100 -24
v -5 0 -24
v -5 100 -24
v 5 0 -24
v 5 100 -24
v 9 0 -24
v 9 100 -24
v -5 0 -25
v -5 100 -25
v 5 0 -25
v 5 100 -25
v -5 0 25
v 5 0 25
v -9 0 24
v -5 0 24
v 5 0 24
v 9 0 24
v -11 0 23
v -9 0 23
v 9 0 23
v 11 0 23
v -13 0 22
v -11 0 22
v 11 0 22
v 13 0 22
v -14 0 21
v -13 0 21
v 13 0 21
v 14 0 21
v -16 0 20
v -14 0 20
v 14 0 20
v 16 0 20
v -17 0 19
v -16 0 19
v 16 0 19
v 17 0 19
v -18 0 18
v -17 0 18
v 17 0 18
v 18 0 18
v -19 0 17
v -18 0 17
v 18 0 17
v 19 0 17
v -20 0 16
v -19 0 16
v 19 0 16
v 20 0 16
v -21 0 14
v -20 0 14
v 20 0 14
v 21 0 14
v -22 0 13
v -21 0 13
v 21 0 13
v 22 0 13
v -23 0 11
v -22 0 11
v 22 0 11
v 23 0 11
v -24 0 9
v -23 0 9
v 23 0 9
v 24 0 9
v -25 0 5
v -24 0 5
v -5 0 5
v 5 0 5
v 24 0 5
v 25 0 5
v -25 0 -5
v -24 0 -5
v -5 0 -5
v 5 0 -5
v 24 0 -5
v 25 0 -5
v -24 0 -9
v -23 0 -9
v 23 0 -9
v 24 0 -9
v -23 0 -11
v -22 0 -11
v 22 0 -11
v 23 0 -11
v -22 0 -13
v -21 0 -13
v 21 0 -13
v 22 0 -13
v -21 0 -14
v -20 0 -14
v 20 0 -14
v 21 0 -14
v -20 0 -16
v -19 0 -16
v 19 0 -16
v 20 0 -16
v -19 0 -17
v -18 0 -17
v 18 0 -17
v 19 0 -17
v -18 0 -18
v -17 0 -18
v 17 0 -18
v 18 0 -18
v -17 0 -19
v -16 0 -19
v 16 0 -19
v 17 0 -19
v -16 0 -20
v -14 0 -20
v 14 0 -20
v 16 0 -20
v -14 0 -21
v -13 0 -21
v 13 0 -21
v 14 0 -21
v -13 0 -22
v -11 0 -22
v 11 0 -22
v 13 0 -22
v -11 0 -23
v -9 0 -23
v 9 0 -23
v 11 0 -23
v -9 0 -24
v -5 0 -24
v 5 0 -24
v 9 0 -24
v -5 0 -25
v 5 0 -25
v -5 99 24
v 5 99 24
v -9 99 23
v -5 99 23
v 5 99 23
v 9 99 23
v -11 99 22
v -9 99 22
v 9 99 22
v 11 99 22
v -13 99 21
v -11 99 21
v 11 99 21
v 13 99 21
v -14 99 20
v -13 99 20
v 13 99 20
v 14 99 20
v -16 99 19
v -14 99 19
v 14 99 19
v 16 99 19
v -17 99 18
v -16 99 18
v 16 99 18
v 17 99 18
v -18 99 17
v -17 99 17
v 17 99 17
v 18 99 17
v -19 99 16
v -18 99 16
v 18 99 16
v 19 99 16
v -20 99 14
v -19 99 14
v 19 99 14
v 20 99 14
v -21 99 13
v -20 99 13
v 20 99 13
v 21 99 13
v -22 99 11
v -21 99 11
v 21 99 11
v 22 99 11
v -23 99 9
v -22 99 9
v 22 99 9
v 23 99 9
v -24 99 5
v -23 99 5
v -5 99 5
v 5 99 5
v 23 99 5
v 24 99 5
v -24 99 -5
v -23 99 -5
v -5 99 -5
v 5 99 -5
v 23 99 -5
v 24 99 -5
v -23 99 -9
v -22 99 -9
v 22 99 -9
v 23 99 -9
v -22 99 -11
v -21 99 -11
v 21 99 -11
v 22 99 -11
v -21 99 -13
v -20 99 -13
v 20 99 -13
v 21 99 -13
v -20 99 -14
v -19 99 -14
v 19 99 -14
v 20 99 -14
v -19 99 -16
v -18 99 -16
v 18 99 -16
v 19 99 -16
v -18 99 -17
v -17 99 -17
v 17 99 -17
v 18 99 -17
v -17 99 -18
v -16 99 -18
v 16 99 -18
v 17 99 -18
v -16 99 -19
v -14 99 -19
v 14 99 -19
v 16 99 -19
v -14 99 -20
v -13 99 -20
v 13 99 -20
v 14 99 -20
v -13 99 -21
v -11 99 -21
v 11 99 -21
v 13 99 -21
v -11 99 -22
v -9 99 -22
v 9 99 -22
v 11 99 -22
v -9 99 -23
v -5 99 -23
v 5 99 -23
v 9 99 -23
v -5 99 -24
v 5 99 -24
v -5 1 24
v 5 1 24
v -9 1 23
v -5 1 23
v 5 1 23
v 9 1 23
v -11 1 22
v -9 1 22
v 9 1 22
v 11 1 22
v -13 1 21
v -11 1 21
v 11 1 21
v 13 1 21
v -14 1 20
v -13 1 20
v 13 1 20
v 14 1 20
v -16 1 19
v -14 1 19
v 14 1 19
v 16 1 19
v -17 1 18
v -16 1 18
v 16 1 18
v 17 1 18
v -18 1 17
v -17 1 17
v 17 1 17
v 18 1 17
v -19 1 16
v -18 1 16
v 18 1 16
v 19 1 16
v -20 1 14
v -19 1 14
v 19 1 14
v 20 1 14
v -21 1 13
v -20 1 13
v 20 1 13
v 21 1 13
v -22 1 11
v -21 1 11
v 21 1 11
v 22 1 11
v -23 1 9
v -22 1 9
v 22 1 9
v 23 1 9
v -24 1 5
v -23 1 5
v -5 1 5
v 5 1 5
v 23 1 5
v 24 1 5
v -24 1 -5
v -23 1 -5
v -5 1 -5
v 5 1 -5
v 23 1 -5
v 24 1 -5
v -23 1 -9
v -22 1 -9
v 22 1 -9
v 23 1 -9
v -22 1 -11
v -21 1 -11
v 21 1 -11
v 22 1 -11
v -21 1 -13
v -20 1 -13
v 20 1 -13
v 21 1 -13
v -20 1 -14
v -19 1 -14
v 19 1 -14
v 20 1 -14
v -19 1 -16
v -18 1 -16
v 18 1 -16
v 19 1 -16
v -18 1 -17
v -17 1 -17
v 17 1 -17
v 18 1 -17
v -17 1 -18
v -16 1 -18
v 16 1 -18
v 17 1 -18
v -16 1 -19
v -14 1 -19
v 14 1 -19
v 16 1 -19
v -14 1 -20
v -13 1 -20
v 13 1 -20
v 14 1 -20
v -13 1 -21
v -11 1 -21
v 11 1 -21
v 13 1 -21
v -11 1 -22
v -9 1 -22
v 9 1 -22
v 11 1 -22
v -9 1 -23
v -5 1 -23
v 5 1 -23
v 9 1 -23
v -5 1 -24
v 5 1 -24
v -5 100 25
v 5 100 25
v -9 100 24
v -5 100 24
v 5 100 24
v 9 100 24
v -11 100 23
v -9 100 23
v 9 100 23
v 11 100 23
v -13 100 22
v -11 100 22
v 11 100 22
v 13 100 22
v -14 100 21
v -13 100 21
v 13 100 21
v 14 100 21
v -16 100 20
v -14 100 20
v 14 100 20
v 16 100 20
v -17 100 19
v -16 100 19
v 16 100 19
v 17 100 19
v -18 100 18
v -17 100 18
v 17 100 18
v 18 100 18
v -19 100 17
v -18 100 17
v 18 100 17
v 19 100 17
v -20 100 16
v -19 100 16
v 19 100 16
v 20 100 16
v -21 100 14
v -20 100 14
v 20 100 14
v 21 100 14
v -22 100 13
v -21 100 13
v 21 100 13
v 22 100 13
v -23 100 11
v -22 100 11
v 22 100 11
v 23 100 11
v -24 100 9
v -23 100 9
v 23 100 9
v 24 100 9
v -25 100 5
v -24 100 5
v -5 100 5
v 5 100 5
v 24 100 5
v 25 100 5
v -25 100 -5
v -24 100 -5
v -5 100 -5
v 5 100 -5
v 24 100 -5
v 25 100 -5
v -24 100 -9
v -23 100 -9
v 23 100 -9
v 24 100 -9
v -23 100 -11
v -22 100 -11
v 22 100 -11
v 23 100 -11
v -22 100 -13
v -21 100 -13
v 21 100 -13
v 22 100 -13
v -21 100 -14
v -20 100 -14
v 20 100 -14
v 21 100 -14
v -20 100 -16
v -19 100 -16
v 19 100 -16
v 20 100 -16
v -19 100 -17
v -18 100 -17
v 18 100 -17
v 19 100 -17
v -18 100 -18
v -17 100 -18
v 17 100 -18
v 18 100 -18
v -17 100 -19
v -16 100 -19
v 16 100 -19
v 17 100 -19
v -16 100 -20
v -14 100 -20
v 14 100 -20
v 16 100 -20
v -14 100 -21
v -13 100 -21
v 13 100 -21
v 14 100 -21
v -13 100 -22
v -11 100 -22
v 11 100 -22
v 13 100 -22
v -11 100 -23
v -9 100 -23
v 9 100 -23
v 11 100 -23
v -9 100 -24
v -5 100 -24
v 5 100 -24
v 9 100 -24
v -5 100 -25
v 5 100 -25

# faces
f 3/1/1 2/1/1 1/1/1
f 4/1/1 2/1/1 3/1/1
f 9/2/1 6/2/1 5/2/1
f 10/2/1 6/2/1 9/2/1
f 11/2/1 8/2/1 7/2/1
f 12/2/1 8/2/1 11/2/1
f 17/2/1 14/2/1 13/2/1
f 18/2/1 14/2/1 17/2/1
f 19/2/1 16/2/1 15/2/1
f 20/2/1 16/2/1 19/2/1
f 25/2/1 22/2/1 21/2/1
f 26/2/1 22/2/1 25/2/1
f 27/2/1 24/2/1 23/2/1
f 28/2/1 24/2/1 27/2/1
f 33/2/1 30/2/1 29/2/1
f 34/2/1 30/2/1 33/2/1
f 35/2/1 32/2/1 31/2/1
f 36/2/1 32/2/1 35/2/1
f 41/2/1 38/2/1 37/2/1
f 42/2/1 38/2/1 41/2/1
f 43/2/1 40/2/1 39/2/1
f 44/2/1 40/2/1 43/2/1
f 49/2/1 46/2/1 45/2/1
f 50/2/1 46/2/1 49/2/1
f 51/2/1 48/2/1 47/2/1
f 52/2/1 48/2/1 51/2/1
f 57/2/1 54/2/1 53/2/1
f 58/2/1 54/2/1 57/2/1
f 59/2/1 56/2/1 55/2/1
f 60/2/1 56/2/1 59/2/1
f 65/2/1 62/2/1 61/2/1
f 66/2/1 62/2/1 65/2/1
f 67/2/1 64/2/1 63/2/1
f 68/2/1 64/2/1 67/2/1
f 73/2/1 70/2/1 69/2/1
f 74/2/1 70/2/1 73/2/1
f 75/2/1 72/2/1 71/2/1
f 76/2/1 72/2/1 75/2/1
f 81/2/1 78/2/1 77/2/1
f 82/2/1 78/2/1 81/2/1
f 83/2/1 80/2/1 79/2/1
f 84/2/1 80/2/1 83/2/1
f 89/2/1 86/2/1 85/2/1
f 90/2/1 86/2/1 89/2/1
f 91/2/1 88/2/1 87/2/1
f 92/2/1 88/2/1 91/2/1
f 97/2/1 94/2/1 93/2/1
f 98/2/1 94/2/1 97/2/1
f 99/2/1 96/2/1 95/2/1
f 100/2/1 96/2/1 99/2/1
f 105/2/1 102/2/1 101/2/1
f 106/2/1 102/2/1 105/2/1
f 107/2/1 104/2/1 103/2/1
f 108/2/1 104/2/1 107/2/1
f 113/1/1 110/1/1 109/1/1
f 114/1/1 110/1/1 113/1/1
f 115/1/1 112/1/1 111/1/1
f 116/1/1 112/1/1 115/1/1
f 121/2/1 118/2/1 117/2/1
f 122/2/1 118/2/1 121/2/1
f 123/2/1 120/2/1 119/2/1
f 124/2/1 120/2/1 123/2/1
f 129/2/1 126/2/1 125/2/1
f 130/2/1 126/2/1 129/2/1
f 131/2/1 128/2/1 127/2/1
f 132/2/1 128/2/1 131/2/1
f 137/2/1 134/2/1 133/2/1
f 138/2/1 134/2/1 137/2/1
f 139/2/1 136/2/1 135/2/1
f 140/2/1 136/2/1 139/2/1
f 145/2/1 142/2/1 141/2/1
f 146/2/1 142/2/1 145/2/1
f 147/2/1 144/2/1 143/2/1
f 148/2/1 144/2/1 147/2/1
f 153/2/1 150/2/1 149/2/1
f 154/2/1 150/2/1 153/2/1
f 155/2/1 152/2/1 151/2/1
f 156/2/1 152/2/1 155/2/1
f 161/2/1 158/2/1 157/2/1
f 162/2/1 158/2/1 161/2/1
f 163/2/1 160/2/1 159/2/1
f 164/2/1 160/2/1 163/2/1
f 169/2/1 166/2/1 165/2/1
f 170/2/1 166/2/1 169/2/1
f 171/2/1 168/2/1 167/2/1
f 172/2/1 168/2/1 171/2/1
f 177/2/1 174/2/1 173/2/1
f 178/2/1 174/2/1 177/2/1
f 179/2/1 176/2/1 175/2/1
f 180/2/1 176/2/1 179/2/1
f 185/2/1 182/2/1 181/2/1
f 186/2/1 182/2/1 185/2/1
f 187/2/1 184/2/1 183/2/1
f 188/2/1 184/2/1 187/2/1
f 193/2/1 190/2/1 189/2/1
f 194/2/1 190/2/1 193/2/1
f 195/2/1 192/2/1 191/2/1
f 196/2/1 192/2/1 195/2/1
f 201/2/1 198/2/1 197/2/1
f 202/2/1 198/2/1 201/2/1
f 203/2/1 200/2/1 199/2/1
f 204/2/1 200/2/1 203/2/1
f 209/2/1 206/2/1 205/2/1
f 210/2/1 206/2/1 209/2/1
f 211/2/1 208/2/1 207/2/1
f 212/2/1 208/2/1 211/2/1
f 217/2/1 214/2/1 213/2/1
f 218/2/1 214/2/1 217/2/1
f 219/2/1 216/2/1 215/2/1
f 220/2/1 216/2/1 219/2/1
f 223/1/1 222/1/1 221/1/1
f 224/1/1 222/1/1 223/1/1
f 225/1/2 226/1/2 227/1/2
f 227/1/2 226/1/2 228/1/2
f 229/2/2 230/2/2 233/2/2
f 233/2/2 230/2/2 234/2/2
f 231/2/2 232/2/2 235/2/2
f 235/2/2 232/2/2 236/2/2
f 237/2/2 238/2/2 241/2/2
f 241/2/2 238/2/2 242/2/2
f 239/2/2 240/2/2 243/2/2
f 243/2/2 240/2/2 244/2/2
f 245/2/2 246/2/2 249/2/2
f 249/2/2 246/2/2 250/2/2
f 247/2/2 248/2/2 251/2/2
f 251/2/2 248/2/2 252/2/2
f 253/2/2 254/2/2 257/2/2
f 257/2/2 254/2/2 258/2/2
f 255/2/2 256/2/2 259/2/2
f 259/2/2 256/2/2 260/2/2
f 261/2/2 262/2/2 265/2/2
f 265/2/2 262/2/2 266/2/2
f 263/2/2 264/2/2 267/2/2
f 267/2/2 264/2/2 268/2/2
f 269/2/2 270/2/2 273/2/2
f 273/2/2 270/2/2 274/2/2
f 271/2/2 272/2/2 275/2/2
f 275/2/2 272/2/2 276/2/2
f 277/2/2 278/2/2 281/2/2
f 281/2/2 278/2/2 282/2/2
f 279/2/2 280/2/2 283/2/2
f 283/2/2 280/2/2 284/2/2
f 285/2/2 286/2/2 289/2/2
f 289/2/2 286/2/2 290/2/2
f 287/2/2 288/2/2 291/2/2
f 291/2/2 288/2/2 292/2/2
f 293/2/2 294/2/2 297/2/2
f 297/2/2 294/2/2 298/2/2
f 295/2/2 296/2/2 299/2/2
f 299/2/2 296/2/2 300/2/2
f 301/2/2 302/2/2 305/2/2
f 305/2/2 302/2/2 306/2/2
f 303/2/2 304/2/2 307/2/2
f 307/2/2 304/2/2 308/2/2
f 309/2/2 310/2/2 313/2/2
f 313/2/2 310/2/2 314/2/2
f 311/2/2 312/2/2 315/2/2
f 315/2/2 312/2/2 316/2/2
f 317/2/2 318/2/2 321/2/2
f 321/2/2 318/2/2 322/2/2
f 319/2/2 320/2/2 323/2/2
f 323/2/2 320/2/2 324/2/2
f 325/2/2 326/2/2 329/2/2
f 329/2/2 326/2/2 330/2/2
f 327/2/2 328/2/2 331/2/2
f 331/2/2 328/2/2 332/2/2
f 333/1/2 334/1/2 337/1/2
f 337/1/2 334/1/2 338/1/2
f 335/1/2 336/1/2 339/1/2
f 339/1/2 336/1/2 340/1/2
f 341/2/2 342/2/2 345/2/2
f 345/2/2 342/2/2 346/2/2
f 343/2/2 344/2/2 347/2/2
f 347/2/2 344/2/2 348/2/2
f 349/2/2 350/2/2 353/2/2
f 353/2/2 350/2/2 354/2/2
f 351/2/2 352/2/2 355/2/2
f 355/2/2 352/2/2 356/2/2
f 357/2/2 358/2/2 361/2/2
f 361/2/2 358/2/2 362/2/2
f 359/2/2 360/2/2 363/2/2
f 363/2/2 360/2/2 364/2/2
f 365/2/2 366/2/2 369/2/2
f 369/2/2 366/2/2 370/2/2
f 367/2/2 368/2/2 371/2/2
f 371/2/2 368/2/2 372/2/2
f 373/2/2 374/2/2 377/2/2
f 377/2/2 374/2/2 378/2/2
f 375/2/2 376/2/2 379/2/2
f 379/2/2 376/2/2 380/2/2
f 381/2/2 382/2/2 385/2/2
f 385/2/2 382/2/2 386/2/2
f 383/2/2 384/2/2 387/2/2
f 387/2/2 384/2/2 388/2/2
f 389/2/2 390/2/2 393/2/2
f 393/2/2 390/2/2 394/2/2
f 391/2/2 392/2/2 395/2/2
f 395/2/2 392/2/2 396/2/2
f 397/2/2 398/2/2 401/2/2
f 401/2/2 398/2/2 402/2/2
f 399/2/2 400/2/2 403/2/2
f 403/2/2 400/2/2 404/2/2
f 405/2/2 406/2/2 409/2/2
f 409/2/2 406/2/2 410/2/2
f 407/2/2 408/2/2 411/2/2
f 411/2/2 408/2/2 412/2/2
f 413/2/2 414/2/2 417/2/2
f 417/2/2 414/2/2 418/2/2
f 415/2/2 416/2/2 419/2/2
f 419/2/2 416/2/2 420/2/2
f 421/2/2 422/2/2 425/2/2
f 425/2/2 422/2/2 426/2/2
f 423/2/2 424/2/2 427/2/2
f 427/2/2 424/2/2 428/2/2
f 429/2/2 430/2/2 433/2/2
f 433/2/2 430/2/2 434/2/2
f 431/2/2 432/2/2 435/2/2
f 435/2/2 432/2/2 436/2/2
f 437/2/2 438/2/2 441/2/2
f 441/2/2 438/2/2 442/2/2
f 439/2/2 440/2/2 443/2/2
f 443/2/2 440/2/2 444/2/2
f 445/1/2 446/1/2 447/1/2
f 447/1/2 446/1/2 448/1/2
f 451/1/3 450/1/3 449/1/3
f 452/1/3 450/1/3 451/1/3
f 455/2/3 454/2/3 453/2/3
f 456/2/3 454/2/3 455/2/3
f 459/2/3 458/2/3 457/2/3
f 460/2/3 458/2/3 459/2/3
f 463/2/3 462/2/3 461/2/3
f 464/2/3 462/2/3 463/2/3
f 467/2/3 466/2/3 465/2/3
f 468/2/3 466/2/3 467/2/3
f 471/2/3 470/2/3 469/2/3
f 472/2/3 470/2/3 471/2/3
f 475/2/3 474/2/3 473/2/3
f 476/2/3 474/2/3 475/2/3
f 479/2/3 478/2/3 477/2/3
f 480/2/3 478/2/3 479/2/3
f 483/2/3 482/2/3 481/2/3
f 484/2/3 482/2/3 483/2/3
f 487/2/3 486/2/3 485/2/3
f 488/2/3 486/2/3 487/2/3
f 491/2/3 490/2/3 489/2/3
f 492/2/3 490/2/3 491/2/3
f 495/2/3 494/2/3 493/2/3
f 496/2/3 494/2/3 495/2/3
f 499/2/3 498/2/3 497/2/3
f 500/2/3 498/2/3 499/2/3
f 503/2/3 502/2/3 501/2/3
f 504/2/3 502/2/3 503/2/3
f 507/2/3 506/2/3 505/2/3
f 508/2/3 506/2/3 507/2/3
f 511/2/3 510/2/3 509/2/3
f 512/2/3 510/2/3 511/2/3
f 515/2/3 514/2/3 513/2/3
f 516/2/3 514/2/3 515/2/3
f 519/2/3 518/2/3 517/2/3
f 520/2/3 518/2/3 519/2/3
f 523/2/3 522/2/3 521/2/3
f 524/2/3 522/2/3 523/2/3
f 527/2/3 526/2/3 525/2/3
f 528/2/3 526/2/3 527/2/3
f 531/2/3 530/2/3 529/2/3
f 532/2/3 530/2/3 531/2/3
f 535/2/3 534/2/3 533/2/3
f 536/2/3 534/2/3 535/2/3
f 539/2/3 538/2/3 537/2/3
f 540/2/3 538/2/3 539/2/3
f 543/2/3 542/2/3 541/2/3
f 544/2/3 542/2/3 543/2/3
f 547/2/3 546/2/3 545/2/3
f 548/2/3 546/2/3 547/2/3
f 551/2/3 550/2/3 549/2/3
f 552/2/3 550/2/3 551/2/3
f 555/2/3 554/2/3 553/2/3
f 556/2/3 554/2/3 555/2/3
f 559/1/3 558/1/3 557/1/3
f 560/1/3 558/1/3 559/1/3
f 563/1/3 562/1/3 561/1/3
f 564/1/3 562/1/3 563/1/3
f 567/2/3 566/2/3 565/2/3
f 568/2/3 566/2/3 567/2/3
f 571/2/3 570/2/3 569/2/3
f 572/2/3 570/2/3 571/2/3
f 575/2/3 574/2/3 573/2/3
f 576/2/3 574/2/3 575/2/3
f 579/2/3 578/2/3 577/2/3
f 580/2/3 578/2/3 579/2/3
f 583/2/3 582/2/3 581/2/3
f 584/2/3 582/2/3 583/2/3
f 587/2/3 586/2/3 585/2/3
f 588/2/3 586/2/3 587/2/3
f 591/2/3 590/2/3 589/2/3
f 592/2/3 590/2/3 591/2/3
f 595/2/3 594/2/3 593/2/3
f 596/2/3 594/2/3 595/2/3
f 599/2/3 598/2/3 597/2/3
f 600/2/3 598/2/3 599/2/3
f 603/2/3 602/2/3 601/2/3
f 604/2/3 602/2/3 603/2/3
f 607/2/3 606/2/3 605/2/3
f 608/2/3 606/2/3 607/2/3
f 611/2/3 610/2/3 609/2/3
f 612/2/3 610/2/3 611/2/3
f 615/2/3 614/2/3 613/2/3
f 616/2/3 614/2/3 615/2/3
f 619/2/3 618/2/3 617/2/3
f 620/2/3 618/2/3 619/2/3
f 623/2/3 622/2/3 621/2/3
f 624/2/3 622/2/3 623/2/3
f 627/2/3 626/2/3 625/2/3
f 628/2/3 626/2/3 627/2/3
f 631/2/3 630/2/3 629/2/3
f 632/2/3 630/2/3 631/2/3
f 635/2/3 634/2/3 633/2/3
f 636/2/3 634/2/3 635/2/3
f 639/2/3 638/2/3 637/2/3
f 640/2/3 638/2/3 639/2/3
f 643/2/3 642/2/3 641/2/3
f 644/2/3 642/2/3 643/2/3
f 647/2/3 646/2/3 645/2/3
f 648/2/3 646/2/3 647/2/3
f 651/2/3 650/2/3 649/2/3
f 652/2/3 650/2/3 651/2/3
f 655/2/3 654/2/3 653/2/3
f 656/2/3 654/2/3 655/2/3
f 659/2/3 658/2/3 657/2/3
f 660/2/3 658/2/3 659/2/3
f 663/2/3 662/2/3 661/2/3
f 664/2/3 662/2/3 663/2/3
f 667/2/3 666/2/3 665/2/3
f 668/2/3 666/2/3 667/2/3
f 671/1/3 670/1/3 669/1/3
f 672/1/3 670/1/3 671/1/3
f 673/1/4 674/1/4 675/1/4
f 675/1/4 674/1/4 676/1/4
f 677/2/4 678/2/4 679/2/4
f 679/2/4 678/2/4 680/2/4
f 681/2/4 682/2/4 683/2/4
f 683/2/4 682/2/4 684/2/4
f 685/2/4 686/2/4 687/2/4
f 687/2/4 686/2/4 688/2/4
f 689/2/4 690/2/4 691/2/4
f 691/2/4 690/2/4 692/2/4
f 693/2/4 694/2/4 695/2/4
f 695/2/4 694/2/4 696/2/4
f 697/2/4 698/2/4 699/2/4
f 699/2/4 698/2/4 700/2/4
f 701/2/4 702/2/4 703/2/4
f 703/2/4 702/2/4 704/2/4
f 705/2/4 706/2/4 707/2/4
f 707/2/4 706/2/4 708/2/4
f 709/2/4 710/2/4 711/2/4
f 711/2/4 710/2/4 712/2/4
f 713/2/4 714/2/4 715/2/4
f 715/2/4 714/2/4 716/2/4
f 717/2/4 718/2/4 719/2/4
f 719/2/4 718/2/4 720/2/4
f 721/2/4 722/2/4 723/2/4
f 723/2/4 722/2/4 724/2/4
f 725/2/4 726/2/4 727/2/4
f 727/2/4 726/2/4 728/2/4
f 729/2/4 730/2/4 731/2/4
f 731/2/4 730/2/4 732/2/4
f 733/2/4 734/2/4 735/2/4
f 735/2/4 734/2/4 736/2/4
f 737/2/4 738/2/4 739/2/4
f 739/2/4 738/2/4 740/2/4
f 741/2/4 742/2/4 743/2/4
f 743/2/4 742/2/4 744/2/4
f 745/2/4 746/2/4 747/2/4
f 747/2/4 746/2/4 748/2/4
f 749/2/4 750/2/4 751/2/4
f 751/2/4 750/2/4 752/2/4
f 753/2/4 754/2/4 755/2/4
f 755/2/4 754/2/4 756/2/4
f 757/2/4 758/2/4 759/2/4
f 759/2/4 758/2/4 760/2/4
f 761/2/4 762/2/4 763/2/4
f 763/2/4 762/2/4 764/2/4
f 765/2/4 766/2/4 767/2/4
f 767/2/4 766/2/4 768/2/4
f 769/2/4 770/2/4 771/2/4
f 771/2/4 770/2/4 772/2/4
f 773/2/4 774/2/4 775/2/4
f 775/2/4 774/2/4 776/2/4
f 777/2/4 778/2/4 779/2/4
f 779/2/4 778/2/4 780/2/4
f 781/1/4 782/1/4 783/1/4
f 783/1/4 782/1/4 784/1/4
f 785/1/4 786/1/4 787/1/4
f 787/1/4 786/1/4 788/1/4
f 789/2/4 790/2/4 791/2/4
f 791/2/4 790/2/4 792/2/4
f 793/2/4 794/2/4 795/2/4
f 795/2/4 794/2/4 796/2/4
f 797/2/4 798/2/4 799/2/4
f 799/2/4 798/2/4 800/2/4
f 801/2/4 802/2/4 803/2/4
f 803/2/4 802/2/4 804/2/4
f 805/2/4 806/2/4 807/2/4
f 807/2/4 806/2/4 808/2/4
f 809/2/4 810/2/4 811/2/4
f 811/2/4 810/2/4 812/2/4
f 813/2/4 814/2/4 815/2/4
f 815/2/4 814/2/4 816/2/4
f 817/2/4 818/2/4 819/2/4
f 819/2/4 818/2/4 820/2/4
f 821/2/4 822/2/4 823/2/4
f 823/2/4 822/2/4 824/2/4
f 825/2/4 826/2/4 827/2/4
f 827/2/4 826/2/4 828/2/4
f 829/2/4 830/2/4 831/2/4
f 831/2/4 830/2/4 832/2/4
f 833/2/4 834/2/4 835/2/4
f 835/2/4 834/2/4 836/2/4
f 837/2/4 838/2/4 839/2/4
f 839/2/4 838/2/4 840/2/4
f 841/2/4 842/2/4 843/2/4
f 843/2/4 842/2/4 844/2/4
f 845/2/4 846/2/4 847/2/4
f 847/2/4 846/2/4 848/2/4
f 849/2/4 850/2/4 851/2/4
f 851/2/4 850/2/4 852/2/4
f 853/2/4 854/2/4 855/2/4
f 855/2/4 854/2/4 856/2/4
f 857/2/4 858/2/4 859/2/4
f 859/2/4 858/2/4 860/2/4
f 861/2/4 862/2/4 863/2/4
f 863/2/4 862/2/4 864/2/4
f 865/2/4 866/2/4 867/2/4
f 867/2/4 866/2/4 868/2/4
f 869/2/4 870/2/4 871/2/4
f 871/2/4 870/2/4 872/2/4
f 873/2/4 874/2/4 875/2/4
f 875/2/4 874/2/4 876/2/4
f 877/2/4 878/2/4 879/2/4
f 879/2/4 878/2/4 880/2/4
f 881/2/4 882/2/4 883/2/4
f 883/2/4 882/2/4 884/2/4
f 885/2/4 886/2/4 887/2/4
f 887/2/4 886/2/4 888/2/4
f 889/2/4 890/2/4 891/2/4
f 891/2/4 890/2/4 892/2/4
f 893/1/4 894/1/4 895/1/4
f 895/1/4 894/1/4 896/1/4
f 900/1/5 898/1/5 897/1/5
f 901/1/5 898/1/5 900/1/5
f 904/2/5 900/2/5 899/2/5
f 905/2/5 902/2/5 901/2/5
f 908/2/5 904/2/5 903/2/5
f 909/2/5 906/2/5 905/2/5
f 912/2/5 908/2/5 907/2/5
f 913/2/5 910/2/5 909/2/5
f 916/2/5 912/2/5 911/2/5
f 917/2/5 914/2/5 913/2/5
f 920/2/5 916/2/5 915/2/5
f 921/2/5 918/2/5 917/2/5
f 924/2/5 920/2/5 919/2/5
f 925/2/5 922/2/5 921/2/5
f 928/2/5 924/2/5 923/2/5
f 929/2/5 926/2/5 925/2/5
f 932/2/5 928/2/5 927/2/5
f 933/2/5 930/2/5 929/2/5
f 936/2/5 932/2/5 931/2/5
f 937/2/5 934/2/5 933/2/5
f 940/2/5 936/2/5 935/2/5
f 941/2/5 938/2/5 937/2/5
f 944/2/5 940/2/5 939/2/5
f 945/2/5 942/2/5 941/2/5
f 948/2/5 944/2/5 943/2/5
f 949/2/5 946/2/5 945/2/5
f 952/2/5 948/2/5 947/2/5
f 953/1/5 901/1/5 900/1/5
f 953/2/5 900/2/5 904/2/5
f 953/2/5 948/2/5 952/2/5
f 953/2/5 904/2/5 908/2/5
f 953/2/5 908/2/5 912/2/5
f 953/2/5 944/2/5 948/2/5
f 953/2/5 912/2/5 916/2/5
f 953/2/5 916/2/5 920/2/5
f 953/2/5 940/2/5 944/2/5
f 953/2/5 920/2/5 924/2/5
f 953/2/5 924/2/5 928/2/5
f 953/2/5 936/2/5 940/2/5
f 953/2/5 928/2/5 932/2/5
f 953/2/5 932/2/5 936/2/5
f 954/2/5 950/2/5 949/2/5
f 954/1/5 901/1/5 953/1/5
f 954/2/5 905/2/5 901/2/5
f 954/2/5 949/2/5 945/2/5
f 954/2/5 933/2/5 929/2/5
f 954/2/5 937/2/5 933/2/5
f 954/2/5 909/2/5 905/2/5
f 954/2/5 929/2/5 925/2/5
f 954/2/5 913/2/5 909/2/5
f 954/2/5 945/2/5 941/2/5
f 954/2/5 925/2/5 921/2/5
f 954/2/5 941/2/5 937/2/5
f 954/2/5 917/2/5 913/2/5
f 954/2/5 921/2/5 917/2/5
f 955/2/5 950/2/5 954/2/5
f 957/1/5 953/1/5 952/1/5
f 957/1/5 956/1/5 955/1/5
f 957/1/5 955/1/5 954/1/5
f 957/1/5 954/1/5 953/1/5
f 957/1/5 952/1/5 951/1/5
f 958/1/5 956/1/5 957/1/5
f 959/1/5 956/1/5 958/1/5
f 960/1/5 956/1/5 959/1/5
f 961/1/5 956/1/5 960/1/5
f 962/1/5 956/1/5 961/1/5
f 963/2/5 959/2/5 958/2/5
f 964/2/5 959/2/5 963/2/5
f 965/2/5 961/2/5 960/2/5
f 966/2/5 961/2/5 965/2/5
f 967/2/5 959/2/5 964/2/5
f 968/2/5 959/2/5 967/2/5
f 969/2/5 965/2/5 960/2/5
f 970/2/5 965/2/5 969/2/5
f 971/2/5 959/2/5 968/2/5
f 972/2/5 959/2/5 971/2/5
f 973/2/5 969/2/5 960/2/5
f 974/2/5 969/2/5 973/2/5
f 975/2/5 959/2/5 972/2/5
f 976/2/5 959/2/5 975/2/5
f 977/2/5 973/2/5 960/2/5
f 978/2/5 973/2/5 977/2/5
f 979/2/5 959/2/5 976/2/5
f 980/2/5 959/2/5 979/2/5
f 981/2/5 977/2/5 960/2/5
f 982/2/5 977/2/5 981/2/5
f 983/2/5 959/2/5 980/2/5
f 984/2/5 959/2/5 983/2/5
f 985/2/5 981/2/5 960/2/5
f 986/2/5 981/2/5 985/2/5
f 987/2/5 959/2/5 984/2/5
f 988/2/5 959/2/5 987/2/5
f 989/2/5 985/2/5 960/2/5
f 990/2/5 985/2/5 989/2/5
f 991/2/5 959/2/5 988/2/5
f 992/2/5 959/2/5 991/2/5
f 993/2/5 989/2/5 960/2/5
f 994/2/5 989/2/5 993/2/5
f 995/2/5 959/2/5 992/2/5
f 996/2/5 959/2/5 995/2/5
f 997/2/5 993/2/5 960/2/5
f 998/2/5 993/2/5 997/2/5
f 999/2/5 959/2/5 996/2/5
f 1000/2/5 959/2/5 999/2/5
f 1001/2/5 997/2/5 960/2/5
f 1002/2/5 997/2/5 1001/2/5
f 1003/2/5 959/2/5 1000/2/5
f 1004/2/5 959/2/5 1003/2/5
f 1005/2/5 1001/2/5 960/2/5
f 1006/2/5 1001/2/5 1005/2/5
f 1007/2/5 959/2/5 1004/2/5
f 1008/2/5 959/2/5 1007/2/5
f 1009/2/5 1005/2/5 960/2/5
f 1010/2/5 1005/2/5 1009/2/5
f 1011/2/5 959/2/5 1008/2/5
f 1012/1/5 960/1/5 959/1/5
f 1012/2/5 959/2/5 1011/2/5
f 1013/2/5 1009/2/5 960/2/5
f 1013/1/5 960/1/5 1012/1/5
f 1014/2/5 1009/2/5 1013/2/5
f 1015/1/5 1013/1/5 1012/1/5
f 1016/1/5 1013/1/5 1015/1/5
f 1020/1/5 1018/1/5 1017/1/5
f 1021/1/5 1018/1/5 1020/1/5
f 1024/2/5 1020/2/5 1019/2/5
f 1025/2/5 1022/2/5 1021/2/5
f 1028/2/5 1024/2/5 1023/2/5
f 1029/2/5 1026/2/5 1025/2/5
f 1032/2/5 1028/2/5 1027/2/5
f 1033/2/5 1030/2/5 1029/2/5
f 1036/2/5 1032/2/5 1031/2/5
f 1037/2/5 1034/2/5 1033/2/5
f 1040/2/5 1036/2/5 1035/2/5
f 1041/2/5 1038/2/5 1037/2/5
f 1044/2/5 1040/2/5 1039/2/5
f 1045/2/5 1042/2/5 1041/2/5
f 1048/2/5 1044/2/5 1043/2/5
f 1049/2/5 1046/2/5 1045/2/5
f 1052/2/5 1048/2/5 1047/2/5
f 1053/2/5 1050/2/5 1049/2/5
f 1056/2/5 1052/2/5 1051/2/5
f 1057/2/5 1054/2/5 1053/2/5
f 1060/2/5 1056/2/5 1055/2/5
f 1061/2/5 1058/2/5 1057/2/5
f 1064/2/5 1060/2/5 1059/2/5
f 1065/2/5 1062/2/5 1061/2/5
f 1068/2/5 1064/2/5 1063/2/5
f 1069/1/5 1021/1/5 1020/1/5
f 1069/2/5 1020/2/5 1024/2/5
f 1069/2/5 1064/2/5 1068/2/5
f 1069/2/5 1024/2/5 1028/2/5
f 1069/2/5 1028/2/5 1032/2/5
f 1069/2/5 1060/2/5 1064/2/5
f 1069/2/5 1032/2/5 1036/2/5
f 1069/2/5 1036/2/5 1040/2/5
f 1069/2/5 1056/2/5 1060/2/5
f 1069/2/5 1040/2/5 1044/2/5
f 1069/2/5 1044/2/5 1048/2/5
f 1069/2/5 1052/2/5 1056/2/5
f 1069/2/5 1048/2/5 1052/2/5
f 1070/2/5 1066/2/5 1065/2/5
f 1070/1/5 1021/1/5 1069/1/5
f 1070/2/5 1025/2/5 1021/2/5
f 1070/2/5 1053/2/5 1049/2/5
f 1070/2/5 1065/2/5 1061/2/5
f 1070/2/5 1049/2/5 1045/2/5
f 1070/2/5 1029/2/5 1025/2/5
f 1070/2/5 1033/2/5 1029/2/5
f 1070/2/5 1045/2/5 1041/2/5
f 1070/2/5 1057/2/5 1053/2/5
f 1070/2/5 1061/2/5 1057/2/5
f 1070/2/5 1041/2/5 1037/2/5
f 1070/2/5 1037/2/5 1033/2/5
f 1071/2/5 1066/2/5 1070/2/5
f 1073/1/5 1069/1/5 1068/1/5
f 1073/1/5 1072/1/5 1071/1/5
f 1073/1/5 1071/1/5 1070/1/5
f 1073/1/5 1070/1/5 1069/1/5
f 1073/1/5 1068/1/5 1067/1/5
f 1074/1/5 1072/1/5 1073/1/5
f 1075/1/5 1072/1/5 1074/1/5
f 1076/1/5 1072/1/5 1075/1/5
f 1077/1/5 1072/1/5 1076/1/5
f 1078/1/5 1072/1/5 1077/1/5
f 1079/2/5 1075/2/5 1074/2/5
f 1080/2/5 1075/2/5 1079/2/5
f 1081/2/5 1077/2/5 1076/2/5
f 1082/2/5 1077/2/5 1081/2/5
f 1083/2/5 1075/2/5 1080/2/5
f 1084/2/5 1075/2/5 1083/2/5
f 1085/2/5 1081/2/5 1076/2/5
f 1086/2/5 1081/2/5 1085/2/5
f 1087/2/5 1075/2/5 1084/2/5
f 1088/2/5 1075/2/5 1087/2/5
f 1089/2/5 1085/2/5 1076/2/5
f 1090/2/5 1085/2/5 1089/2/5
f 1091/2/5 1075/2/5 1088/2/5
f 1092/2/5 1075/2/5 1091/2/5
f 1093/2/5 1089/2/5 1076/2/5
f 1094/2/5 1089/2/5 1093/2/5
f 1095/2/5 1075/2/5 1092/2/5
f 1096/2/5 1075/2/5 1095/2/5
f 1097/2/5 1093/2/5 1076/2/5
f 1098/2/5 1093/2/5 1097/2/5
f 1099/2/5 1075/2/5 1096/2/5
f 1100/2/5 1075/2/5 1099/2/5
f 1101/2/5 1097/2/5 1076/2/5
f 1102/2/5 1097/2/5 1101/2/5
f 1103/2/5 1075/2/5 1100/2/5
f 1104/2/5 1075/2/5 1103/2/5
f 1105/2/5 1101/2/5 1076/2/5
f 1106/2/5 1101/2/5 1105/2/5
f 1107/2/5 1075/2/5 1104/2/5
f 1108/2/5 1075/2/5 1107/2/5
f 1109/2/5 1105/2/5 1076/2/5
f 1110/2/5 1105/2/5 1109/2/5
f 1111/2/5 1075/2/5 1108/2/5
f 1112/2/5 1075/2/5 1111/2/5
f 1113/2/5 1109/2/5 1076/2/5
f 1114/2/5 1109/2/5 1113/2/5
f 1115/2/5 1075/2/5 1112/2/5
f 1116/2/5 1075/2/5 1115/2/5
f 1117/2/5 1113/2/5 1076/2/5
f 1118/2/5 1113/2/5 1117/2/5
f 1119/2/5 1075/2/5 1116/2/5
f 1120/2/5 1075/2/5 1119/2/5
f 1121/2/5 1117/2/5 1076/2/5
f 1122/2/5 1117/2/5 1121/2/5
f 1123/2/5 1075/2/5 1120/2/5
f 1124/1/5 1076/1/5 1075/1/5
f 1124/2/5 1075/2/5 1123/2/5
f 1125/2/5 1121/2/5 1076/2/5
f 1125/1/5 1076/1/5 1124/1/5
f 1126/2/5 1121/2/5 1125/2/5
f 1127/1/5 1125/1/5 1124/1/5
f 1128/1/5 1125/1/5 1127/1/5
f 1129/1/6 1130/1/6 1132/1/6
f 1132/1/6 1130/1/6 1133/1/6
f 1131/2/6 1132/2/6 1136/2/6
f 1133/2/6 1134/2/6 1137/2/6
f 1135/2/6 1136/2/6 1140/2/6
f 1137/2/6 1138/2/6 1141/2/6
f 1139/2/6 1140/2/6 1144/2/6
f 1141/2/6 1142/2/6 1145/2/6
f 1143/2/6 1144/2/6 1148/2/6
f 1145/2/6 1146/2/6 1149/2/6
f 1147/2/6 1148/2/6 1152/2/6
f 1149/2/6 1150/2/6 1153/2/6
f 1151/2/6 1152/2/6 1156/2/6
f 1153/2/6 1154/2/6 1157/2/6
f 1155/2/6 1156/2/6 1160/2/6
f 1157/2/6 1158/2/6 1161/2/6
f 1159/2/6 1160/2/6 1164/2/6
f 1161/2/6 1162/2/6 1165/2/6
f 1163/2/6 1164/2/6 1168/2/6
f 1165/2/6 1166/2/6 1169/2/6
f 1167/2/6 1168/2/6 1172/2/6
f 1169/2/6 1170/2/6 1173/2/6
f 1171/2/6 1172/2/6 1176/2/6
f 1173/2/6 1174/2/6 1177/2/6
f 1175/2/6 1176/2/6 1180/2/6
f 1132/1/6 1133/1/6 1181/1/6
f 1136/2/6 1132/2/6 1181/2/6
f 1180/2/6 1176/2/6 1181/2/6
f 1140/2/6 1136/2/6 1181/2/6
f 1144/2/6 1140/2/6 1181/2/6
f 1176/2/6 1172/2/6 1181/2/6
f 1148/2/6 1144/2/6 1181/2/6
f 1152/2/6 1148/2/6 1181/2/6
f 1172/2/6 1168/2/6 1181/2/6
f 1156/2/6 1152/2/6 1181/2/6
f 1160/2/6 1156/2/6 1181/2/6
f 1168/2/6 1164/2/6 1181/2/6
f 1164/2/6 1160/2/6 1181/2/6
f 1177/2/6 1178/2/6 1182/2/6
f 1181/1/6 1133/1/6 1182/1/6
f 1133/2/6 1137/2/6 1182/2/6
f 1161/2/6 1165/2/6 1182/2/6
f 1173/2/6 1177/2/6 1182/2/6
f 1157/2/6 1161/2/6 1182/2/6
f 1137/2/6 1141/2/6 1182/2/6
f 1141/2/6 1145/2/6 1182/2/6
f 1153/2/6 1157/2/6 1182/2/6
f 1165/2/6 1169/2/6 1182/2/6
f 1169/2/6 1173/2/6 1182/2/6
f 1149/2/6 1153/2/6 1182/2/6
f 1145/2/6 1149/2/6 1182/2/6
f 1182/2/6 1178/2/6 1183/2/6
f 1180/1/6 1181/1/6 1185/1/6
f 1183/1/6 1184/1/6 1185/1/6
f 1182/1/6 1183/1/6 1185/1/6
f 1181/1/6 1182/1/6 1185/1/6
f 1179/1/6 1180/1/6 1185/1/6
f 1185/1/6 1184/1/6 1186/1/6
f 1186/1/6 1184/1/6 1187/1/6
f 1187/1/6 1184/1/6 1188/1/6
f 1188/1/6 1184/1/6 1189/1/6
f 1189/1/6 1184/1/6 1190/1/6
f 1186/2/6 1187/2/6 1191/2/6
f 1191/2/6 1187/2/6 1192/2/6
f 1188/2/6 1189/2/6 1193/2/6
f 1193/2/6 1189/2/6 1194/2/6
f 1192/2/6 1187/2/6 1195/2/6
f 1195/2/6 1187/2/6 1196/2/6
f 1188/2/6 1193/2/6 1197/2/6
f 1197/2/6 1193/2/6 1198/2/6
f 1196/2/6 1187/2/6 1199/2/6
f 1199/2/6 1187/2/6 1200/2/6
f 1188/2/6 1197/2/6 1201/2/6
f 1201/2/6 1197/2/6 1202/2/6
f 1200/2/6 1187/2/6 1203/2/6
f 1203/2/6 1187/2/6 1204/2/6
f 1188/2/6 1201/2/6 1205/2/6
f 1205/2/6 1201/2/6 1206/2/6
f 1204/2/6 1187/2/6 1207/2/6
f 1207/2/6 1187/2/6 1208/2/6
f 1188/2/6 1205/2/6 1209/2/6
f 1209/2/6 1205/2/6 1210/2/6
f 1208/2/6 1187/2/6 1211/2/6
f 1211/2/6 1187/2/6 1212/2/6
f 1188/2/6 1209/2/6 1213/2/6
f 1213/2/6 1209/2/6 1214/2/6
f 1212/2/6 1187/2/6 1215/2/6
f 1215/2/6 1187/2/6 1216/2/6
f 1188/2/6 1213/2/6 1217/2/6
f 1217/2/6 1213/2/6 1218/2/6
f 1216/2/6 1187/2/6 1219/2/6
f 1219/2/6 1187/2/6 1220/2/6
f 1188/2/6 1217/2/6 1221/2/6
f 1221/2/6 1217/2/6 1222/2/6
f 1220/2/6 1187/2/6 1223/2/6
f 1223/2/6 1187/2/6 1224/2/6
f 1188/2/6 1221/2/6 1225/2/6
f 1225/2/6 1221/2/6 1226/2/6
f 1224/2/6 1187/2/6 1227/2/6
f 1227/2/6 1187/2/6 1228/2/6
f 1188/2/6 1225/2/6 1229/2/6
f 1229/2/6 1225/2/6 1230/2/6
f 1228/2/6 1187/2/6 1231/2/6
f 1231/2/6 1187/2/6 1232/2/6
f 1188/2/6 1229/2/6 1233/2/6
f 1233/2/6 1229/2/6 1234/2/6
f 1232/2/6 1187/2/6 1235/2/6
f 1187/1/6 1188/1/6 1236/1/6
f 1235/2/6 1187/2/6 1236/2/6
f 1188/2/6 1233/2/6 1237/2/6
f 1236/1/6 1188/1/6 1237/1/6
f 1237/2/6 1233/2/6 1238/2/6
f 1236/1/6 1237/1/6 1239/1/6
f 1239/1/6 1237/1/6 1240/1/6
f 1241/1/6 1242/1/6 1244/1/6
f 1244/1/6 1242/1/6 1245/1/6
f 1243/2/6 1244/2/6 1248/2/6
f 1245/2/6 1246/2/6 1249/2/6
f 1247/2/6 1248/2/6 1252/2/6
f 1249/2/6 1250/2/6 1253/2/6
f 1251/2/6 1252/2/6 1256/2/6
f 1253/2/6 1254/2/6 1257/2/6
f 1255/2/6 1256/2/6 1260/2/6
f 1257/2/6 1258/2/6 1261/2/6
f 1259/2/6 1260/2/6 1264/2/6
f 1261/2/6 1262/2/6 1265/2/6
f 1263/2/6 1264/2/6 1268/2/6
f 1265/2/6 1266/2/6 1269/2/6
f 1267/2/6 1268/2/6 1272/2/6
f 1269/2/6 1270/2/6 1273/2/6
f 1271/2/6 1272/2/6 1276/2/6
f 1273/2/6 1274/2/6 1277/2/6
f 1275/2/6 1276/2/6 1280/2/6
f 1277/2/6 1278/2/6 1281/2/6
f 1279/2/6 1280/2/6 1284/2/6
f 1281/2/6 1282/2/6 1285/2/6
f 1283/2/6 1284/2/6 1288/2/6
f 1285/2/6 1286/2/6 1289/2/6
f 1287/2/6 1288/2/6 1292/2/6
f 1289/2/6 1290/2/6 1293/2/6
f 1291/2/6 1292/2/6 1296/2/6
f 1244/1/6 1245/1/6 1297/1/6
f 1248/2/6 1244/2/6 1297/2/6
f 1296/2/6 1292/2/6 1297/2/6
f 1252/2/6 1248/2/6 1297/2/6
f 1256/2/6 1252/2/6 1297/2/6
f 1292/2/6 1288/2/6 1297/2/6
f 1260/2/6 1256/2/6 1297/2/6
f 1264/2/6 1260/2/6 1297/2/6
f 1288/2/6 1284/2/6 1297/2/6
f 1268/2/6 1264/2/6 1297/2/6
f 1272/2/6 1268/2/6 1297/2/6
f 1284/2/6 1280/2/6 1297/2/6
f 1276/2/6 1272/2/6 1297/2/6
f 1280/2/6 1276/2/6 1297/2/6
f 1293/2/6 1294/2/6 1298/2/6
f 1297/1/6 1245/1/6 1298/1/6
f 1245/2/6 1249/2/6 1298/2/6
f 1289/2/6 1293/2/6 1298/2/6
f 1273/2/6 1277/2/6 1298/2/6
f 1277/2/6 1281/2/6 1298/2/6
f 1249/2/6 1253/2/6 1298/2/6
f 1269/2/6 1273/2/6 1298/2/6
f 1253/2/6 1257/2/6 1298/2/6
f 1285/2/6 1289/2/6 1298/2/6
f 1265/2/6 1269/2/6 1298/2/6
f 1281/2/6 1285/2/6 1298/2/6
f 1257/2/6 1261/2/6 1298/2/6
f 1261/2/6 1265/2/6 1298/2/6
f 1298/2/6 1294/2/6 1299/2/6
f 1296/1/6 1297/1/6 1301/1/6
f 1299/1/6 1300/1/6 1301/1/6
f 1298/1/6 1299/1/6 1301/1/6
f 1297/1/6 1298/1/6 1301/1/6
f 1295/1/6 1296/1/6 1301/1/6
f 1301/1/6 1300/1/6 1302/1/6
f 1302/1/6 1300/1/6 1303/1/6
f 1303/1/6 1300/1/6 1304/1/6
f 1304/1/6 1300/1/6 1305/1/6
f 1305/1/6 1300/1/6 1306/1/6
f 1302/2/6 1303/2/6 1307/2/6
f 1307/2/6 1303/2/6 1308/2/6
f 1304/2/6 1305/2/6 1309/2/6
f 1309/2/6 1305/2/6 1310/2/6
f 1308/2/6 1303/2/6 1311/2/6
f 1311/2/6 1303/2/6 1312/2/6
f 1304/2/6 1309/2/6 1313/2/6
f 1313/2/6 1309/2/6 1314/2/6
f 1312/2/6 1303/2/6 1315/2/6
f 1315/2/6 1303/2/6 1316/2/6
f 1304/2/6 1313/2/6 1317/2/6
f 1317/2/6 1313/2/6 1318/2/6
f 1316/2/6 1303/2/6 1319/2/6
f 1319/2/6 1303/2/6 1320/2/6
f 1304/2/6 1317/2/6 1321/2/6
f 1321/2/6 1317/2/6 1322/2/6
f 1320/2/6 1303/2/6 1323/2/6
f 1323/2/6 1303/2/6 1324/2/6
f 1304/2/6 1321/2/6 1325/2/6
f 1325/2/6 1321/2/6 1326/2/6
f 1324/2/6 1303/2/6 1327/2/6
f 1327/2/6 1303/2/6 1328/2/6
f 1304/2/6 1325/2/6 1329/2/6
f 1329/2/6 1325/2/6 1330/2/6
f 1328/2/6 1303/2/6 1331/2/6
f 1331/2/6 1303/2/6 1332/2/6
f 1304/2/6 1329/2/6 1333/2/6
f 1333/2/6 1329/2/6 1334/2/6
f 1332/2/6 1303/2/6 1335/2/6
f 1335/2/6 1303/2/6 1336/2/6
f 1304/2/6 1333/2/6 1337/2/6
f 1337/2/6 1333/2/6 1338/2/6
f 1336/2/6 1303/2/6 1339/2/6
f 1339/2/6 1303/2/6 1340/2/6
f 1304/2/6 1337/2/6 1341/2/6
f 1341/2/6 1337/2/6 1342/2/6
f 1340/2/6 1303/2/6 1343/2/6
f 1343/2/6 1303/2/6 1344/2/6
f 1304/2/6 1341/2/6 1345/2/6
f 1345/2/6 1341/2/6 1346/2/6
f 1344/2/6 1303/2/6 1347/2/6
f 1347/2/6 1303/2/6 1348/2/6
f 1304/2/6 1345/2/6 1349/2/6
f 1349/2/6 1345/2/6 1350/2/6
f 1348/2/6 1303/2/6 1351/2/6
f 1351/2/6 1303/2/6 1352/2/6
f 1304/2/6 1349/2/6 1353/2/6
f 1353/2/6 1349/2/6 1354/2/6
f 1352/2/6 1303/2/6 1355/2/6
f 1303/1/6 1304/1/6 1356/1/6
f 1355/2/6 1303/2/6 1356/2/6
f 1304/2/6 1353/2/6 1357/2/6
f 1356/1/6 1304/1/6 1357/1/6
f 1357/2/6 1353/2/6 1358/2/6
f 1356/1/6 1357/1/6 1359/1/6
f 1359/1/6 1357/1/6 1360/1/6
